…
```
## Adding missing grouping variables: `genome_name`
```

```r
print(annotated_fraction_panG)
```

```
## # A tibble: 4,331 x 2
##    genome_name panG_counts
##          <int>       <int>
##  1           0          12
##  2           1          13
##  3           2          15
##  4           3          13
##  5           4          12
##  6           5          13
##  7           6          12
##  8           7          11
##  9           8          14
## 10           9          13
## # ... with 4,321 more rows
```
…
